…
``` r
#People who were involved with alcohol were driving faster than others on average.
```

# 3

``` r
c2015_sample %>% group_by(DAY) %>% summarize(mean(TRAV_SP, na.rm=TRUE))
```

    ## # A tibble: 31 x 2
    ##      DAY `mean(TRAV_SP, na.rm = TRUE)`
    ##    <dbl>                         <dbl>
    ##  1     1                          49.2
    ##  2     2                          49.5
    ##  3     3                          45.6
    ##  4     4                          38.2
    ##  5     5                          42  
    ##  6     6                          40.6
    ##  7     7                          40.1
    ##  8     8                          42.7
    ##  9     9                          50.8
    ## 10    10                          47.1
    ## # ... with 21 more rows
…
